QMEL Forecasting Series - Time Series Graphics and Decomposition – QMEL Forecasts
…
# A tsibble: 5 x 2 [1M]
     Month Obersvation
     <mth>       <dbl>
1 2019 Jan          50
2 2019 Feb          23
3 2019 Mar          34
4 2019 Apr          30
5 2019 May          25

# tsibble can also store multiple time series in a single object

# Example, here we are informed that we have 14 different time series. The 14 different times series in the object are uniquely identified by the Length and Sex variables.
olympic_running

# A tsibble: 312 x 4 [4Y]
# Key:       Length, Sex [14]
    Year Length Sex    Time
   <int>  <int> <chr> <dbl>
 1  1896    100 men    12  
 2  1900    100 men    11  
 3  1904    100 men    11  
 4  1908    100 men    10.8
 5  1912    100 men    10.8
 6  1916    100 men    NA  
 7  1920    100 men    10.8
 8  1924    100 men    10.6
 9  1928    100 men    10.8
10  1932    100 men    10.3
# ℹ 302 more rows
…
# We can also used tidy functions such as mutate(), filter(), select(), and summarise()

# Monthly data on Medicare Australia prescription data from July 1991 to June 2008
PBS

# A tsibble: 67,596 x 9 [1M]
# Key:       Concession, Type, ATC1, ATC2 [336]
      Month Concession   Type      ATC1  ATC1_desc ATC2  ATC2_desc Scripts  Cost
      <mth> <chr>        <chr>     <chr> <chr>     <chr> <chr>       <dbl> <dbl>
 1 1991 Jul Concessional Co-payme… A     Alimenta… A01   STOMATOL…   18228 67877
 2 1991 Aug Concessional Co-payme… A     Alimenta… A01   STOMATOL…   15327 57011
 3 1991 Sep Concessional Co-payme… A     Alimenta… A01   STOMATOL…   14775 55020
 4 1991 Oct Concessional Co-payme… A     Alimenta… A01   STOMATOL…   15380 57222
 5 1991 Nov Concessional Co-payme… A     Alimenta… A01   STOMATOL…   14371 52120
 6 1991 Dec Concessional Co-payme… A     Alimenta… A01   STOMATOL…   15028 54299
 7 1992 Jan Concessional Co-payme… A     Alimenta… A01   STOMATOL…   11040 39753
 8 1992 Feb Concessional Co-payme… A     Alimenta… A01   STOMATOL…   15165 54405
 9 1992 Mar Concessional Co-payme… A     Alimenta… A01   STOMATOL…   16898 61108
10 1992 Apr Concessional Co-payme… A     Alimenta… A01   STOMATOL…   18141 65356
# ℹ 67,586 more rows
…
write.csv("Data/prison.csv")

"","x"
"1","Data/prison.csv"

prison.tib <- prison |> 
  mutate(Quarter = yearquarter(Date)) |> 
  select(-Date) |> 
  as_tsibble(key = c(State, Gender, Legal, Indigenous),
                     index = Quarter)

prison

# A tibble: 3,072 × 6
   Date       State Gender Legal     Indigenous Count
   <date>     <chr> <chr>  <chr>     <chr>      <dbl>
 1 2005-03-01 ACT   Female Remanded  ATSI           0
 2 2005-03-01 ACT   Female Remanded  Non-ATSI       2
 3 2005-03-01 ACT   Female Sentenced ATSI           0
 4 2005-03-01 ACT   Female Sentenced Non-ATSI       5
 5 2005-03-01 ACT   Male   Remanded  ATSI           7
 6 2005-03-01 ACT   Male   Remanded  Non-ATSI      58
 7 2005-03-01 ACT   Male   Sentenced ATSI           5
 8 2005-03-01 ACT   Male   Sentenced Non-ATSI     101
 9 2005-03-01 NSW   Female Remanded  ATSI          51
10 2005-03-01 NSW   Female Remanded  Non-ATSI     131
# ℹ 3,062 more rows

prison.tib # 64 differnt data sets

# A tsibble: 3,072 x 6 [1Q]
# Key:       State, Gender, Legal, Indigenous [64]
   State Gender Legal    Indigenous Count Quarter
   <chr> <chr>  <chr>    <chr>      <dbl>   <qtr>
 1 ACT   Female Remanded ATSI           0 2005 Q1
 2 ACT   Female Remanded ATSI           1 2005 Q2
 3 ACT   Female Remanded ATSI           0 2005 Q3
 4 ACT   Female Remanded ATSI           0 2005 Q4
 5 ACT   Female Remanded ATSI           1 2006 Q1
 6 ACT   Female Remanded ATSI           1 2006 Q2
 7 ACT   Female Remanded ATSI           1 2006 Q3
 8 ACT   Female Remanded ATSI           0 2006 Q4
 9 ACT   Female Remanded ATSI           0 2007 Q1
10 ACT   Female Remanded ATSI           1 2007 Q2
# ℹ 3,062 more rows

Seasonal Periods

Time Plots

ansett

# A tsibble: 7,407 x 4 [1W]
# Key:       Airports, Class [30]
       Week Airports Class    Passengers
     <week> <chr>    <chr>         <dbl>
 1 1989 W28 ADL-PER  Business        193
 2 1989 W29 ADL-PER  Business        254
 3 1989 W30 ADL-PER  Business        185
 4 1989 W31 ADL-PER  Business        254
 5 1989 W32 ADL-PER  Business        191
 6 1989 W33 ADL-PER  Business        136
 7 1989 W34 ADL-PER  Business          0
 8 1989 W35 ADL-PER  Business          0
 9 1989 W36 ADL-PER  Business          0
10 1989 W37 ADL-PER  Business          0
# ℹ 7,397 more rows
…
Important Definitions

Trend - A long term increase of decrease in the data. This does not have to be linear, it can sometimes “change directions”.

Seasonal - A seasonal pattern occurs when a time series is affected by seasonal factors such as the time of year or the day of the week. Seasonality is always of a fixed and known period.

Cyclic - A cycle occurs when the data exhibits rises and falls that are not of a fixed frequency.

In general, the average length of cycles is longer than the length of a seasonal pattern and the magnitudes of cycles tend to be more variable than the magnitudes of seasonal patterns.

Seasonal Plots

a10

# A tsibble: 204 x 3 [1M]
      Month  TotalC  Cost
      <mth>   <dbl> <dbl>
 1 1991 Jul 3526591  3.53
 2 1991 Aug 3180891  3.18
 3 1991 Sep 3252221  3.25
 4 1991 Oct 3611003  3.61
 5 1991 Nov 3565869  3.57
 6 1991 Dec 4306371  4.31
 7 1992 Jan 5088335  5.09
 8 1992 Feb 2814520  2.81
 9 1992 Mar 2985811  2.99
10 1992 Apr 3204780  3.20
# ℹ 194 more rows
…
Multiple seasonal periods

vic_elec

# A tsibble: 52,608 x 5 [30m] <Australia/Melbourne>
   Time                Demand Temperature Date       Holiday
   <dttm>               <dbl>       <dbl> <date>     <lgl>  
 1 2012-01-01 00:00:00  4383.        21.4 2012-01-01 TRUE   
 2 2012-01-01 00:30:00  4263.        21.0 2012-01-01 TRUE   
 3 2012-01-01 01:00:00  4049.        20.7 2012-01-01 TRUE   
 4 2012-01-01 01:30:00  3878.        20.6 2012-01-01 TRUE   
 5 2012-01-01 02:00:00  4036.        20.4 2012-01-01 TRUE   
 6 2012-01-01 02:30:00  3866.        20.2 2012-01-01 TRUE   
 7 2012-01-01 03:00:00  3694.        20.1 2012-01-01 TRUE   
 8 2012-01-01 03:30:00  3562.        19.6 2012-01-01 TRUE   
 9 2012-01-01 04:00:00  3433.        19.1 2012-01-01 TRUE   
10 2012-01-01 04:30:00  3359.        19.0 2012-01-01 TRUE   
# ℹ 52,598 more rows
…
# Blue line is the average value for each month

# Not too informative for this data

holidays <- tourism |>
  filter(Purpose == "Holiday") |>
  group_by(State) |>
  summarise(Trips = sum(Trips))
holidays

# A tsibble: 640 x 3 [1Q]
# Key:       State [8]
   State Quarter Trips
   <chr>   <qtr> <dbl>
 1 ACT   1998 Q1  196.
 2 ACT   1998 Q2  127.
 3 ACT   1998 Q3  111.
 4 ACT   1998 Q4  170.
 5 ACT   1999 Q1  108.
 6 ACT   1999 Q2  125.
 7 ACT   1999 Q3  178.
 8 ACT   1999 Q4  218.
 9 ACT   2000 Q1  158.
10 ACT   2000 Q2  155.
# ℹ 630 more rows
…
2. Chapter 2 - Exercises

Explore the following four time series: Bricks from aus_production, Lynx from pelt, Close from gafa_stock, Demand from vic_elec.

aus_production # Looks to be quarterly data

# A tsibble: 218 x 7 [1Q]
   Quarter  Beer Tobacco Bricks Cement Electricity   Gas
     <qtr> <dbl>   <dbl>  <dbl>  <dbl>       <dbl> <dbl>
 1 1956 Q1   284    5225    189    465        3923     5
 2 1956 Q2   213    5178    204    532        4436     6
 3 1956 Q3   227    5297    208    561        4806     7
 4 1956 Q4   308    5681    197    570        4418     6
 5 1957 Q1   262    5577    187    529        4339     5
 6 1957 Q2   228    5651    214    604        4811     7
 7 1957 Q3   236    5317    227    603        5259     7
 8 1957 Q4   320    6152    222    582        4735     6
 9 1958 Q1   272    5758    199    554        4608     5
10 1958 Q2   233    5641    229    620        5196     7
# ℹ 208 more rows
…
pelt # Yearly data

# A tsibble: 91 x 3 [1Y]
    Year  Hare  Lynx
   <dbl> <dbl> <dbl>
 1  1845 19580 30090
 2  1846 19600 45150
 3  1847 19610 49150
 4  1848 11990 39520
 5  1849 28040 21230
 6  1850 58000  8420
 7  1851 74600  5560
 8  1852 75090  5080
 9  1853 88480 10170
10  1854 61280 19600
# ℹ 81 more rows
…
gafa_stock # daily data that skips weekends?

# A tsibble: 5,032 x 8 [!]
# Key:       Symbol [4]
   Symbol Date        Open  High   Low Close Adj_Close    Volume
   <chr>  <date>     <dbl> <dbl> <dbl> <dbl>     <dbl>     <dbl>
 1 AAPL   2014-01-02  79.4  79.6  78.9  79.0      67.0  58671200
 2 AAPL   2014-01-03  79.0  79.1  77.2  77.3      65.5  98116900
 3 AAPL   2014-01-06  76.8  78.1  76.2  77.7      65.9 103152700
 4 AAPL   2014-01-07  77.8  78.0  76.8  77.1      65.4  79302300
 5 AAPL   2014-01-08  77.0  77.9  77.0  77.6      65.8  64632400
 6 AAPL   2014-01-09  78.1  78.1  76.5  76.6      65.0  69787200
 7 AAPL   2014-01-10  77.1  77.3  75.9  76.1      64.5  76244000
 8 AAPL   2014-01-13  75.7  77.5  75.7  76.5      64.9  94623200
 9 AAPL   2014-01-14  76.9  78.1  76.8  78.1      66.1  83140400
10 AAPL   2014-01-15  79.1  80.0  78.8  79.6      67.5  97909700
# ℹ 5,022 more rows
…
vic_elec # Data collected every 30 min

# A tsibble: 52,608 x 5 [30m] <Australia/Melbourne>
   Time                Demand Temperature Date       Holiday
   <dttm>               <dbl>       <dbl> <date>     <lgl>  
 1 2012-01-01 00:00:00  4383.        21.4 2012-01-01 TRUE   
 2 2012-01-01 00:30:00  4263.        21.0 2012-01-01 TRUE   
 3 2012-01-01 01:00:00  4049.        20.7 2012-01-01 TRUE   
 4 2012-01-01 01:30:00  3878.        20.6 2012-01-01 TRUE   
 5 2012-01-01 02:00:00  4036.        20.4 2012-01-01 TRUE   
 6 2012-01-01 02:30:00  3866.        20.2 2012-01-01 TRUE   
 7 2012-01-01 03:00:00  3694.        20.1 2012-01-01 TRUE   
 8 2012-01-01 03:30:00  3562.        19.6 2012-01-01 TRUE   
 9 2012-01-01 04:00:00  3433.        19.1 2012-01-01 TRUE   
10 2012-01-01 04:30:00  3359.        19.0 2012-01-01 TRUE   
# ℹ 52,598 more rows
…
Use filter() to find what days corresponded to the peak closing price for each of the four stocks in gafa_stock.

gafa_stock<-gafa_stock # daily data that skips weekends?

gafa_stock

# A tsibble: 5,032 x 8 [!]
# Key:       Symbol [4]
   Symbol Date        Open  High   Low Close Adj_Close    Volume
   <chr>  <date>     <dbl> <dbl> <dbl> <dbl>     <dbl>     <dbl>
 1 AAPL   2014-01-02  79.4  79.6  78.9  79.0      67.0  58671200
 2 AAPL   2014-01-03  79.0  79.1  77.2  77.3      65.5  98116900
 3 AAPL   2014-01-06  76.8  78.1  76.2  77.7      65.9 103152700
 4 AAPL   2014-01-07  77.8  78.0  76.8  77.1      65.4  79302300
 5 AAPL   2014-01-08  77.0  77.9  77.0  77.6      65.8  64632400
 6 AAPL   2014-01-09  78.1  78.1  76.5  76.6      65.0  69787200
 7 AAPL   2014-01-10  77.1  77.3  75.9  76.1      64.5  76244000
 8 AAPL   2014-01-13  75.7  77.5  75.7  76.5      64.9  94623200
 9 AAPL   2014-01-14  76.9  78.1  76.8  78.1      66.1  83140400
10 AAPL   2014-01-15  79.1  80.0  78.8  79.6      67.5  97909700
# ℹ 5,022 more rows
…
tourism

# A tsibble: 24,320 x 5 [1Q]
# Key:       Region, State, Purpose [304]
   Quarter Region   State           Purpose  Trips
     <qtr> <chr>    <chr>           <chr>    <dbl>
 1 1998 Q1 Adelaide South Australia Business  135.
 2 1998 Q2 Adelaide South Australia Business  110.
 3 1998 Q3 Adelaide South Australia Business  166.
 4 1998 Q4 Adelaide South Australia Business  127.
 5 1999 Q1 Adelaide South Australia Business  137.
 6 1999 Q2 Adelaide South Australia Business  200.
 7 1999 Q3 Adelaide South Australia Business  169.
 8 1999 Q4 Adelaide South Australia Business  134.
 9 2000 Q1 Adelaide South Australia Business  154.
10 2000 Q2 Adelaide South Australia Business  169.
# ℹ 24,310 more rows
tourism2 <- readxl::read_excel(("Data/tourism.xlsx"))

# Create a tsibble which is identical to the tourism tsibble from the tsibble package.
tourism2 <- tourism2 |> 
  mutate(Quarter = yearquarter(Quarter)) |>
  as_tsibble(index = Quarter, key = c(Region, State, Purpose))

# Find what combination of Region and Purpose had the maximum number of overnight trips on average.
tourism2 |> 
  group_by(Region, Purpose) |> 
  mutate(max_trips = max(Trips)) |> 
  filter(Trips == max_trips) |> 
  arrange(desc(max_trips))

# A tsibble: 304 x 6 [1Q]
# Key:       Region, State, Purpose [304]
# Groups:    Region, Purpose [304]
   Quarter Region          State           Purpose  Trips max_trips
     <qtr> <chr>           <chr>           <chr>    <dbl>     <dbl>
 1 2017 Q4 Melbourne       Victoria        Visiting  985.      985.
 2 2001 Q4 Sydney          New South Wales Business  948.      948.
 3 2016 Q4 Sydney          New South Wales Visiting  921.      921.
 4 1998 Q1 South Coast     New South Wales Holiday   915.      915.
 5 2016 Q1 North Coast NSW New South Wales Holiday   906.      906.
 6 1998 Q1 Sydney          New South Wales Holiday   828.      828.
 7 2017 Q4 Melbourne       Victoria        Holiday   806.      806.
 8 2016 Q4 Brisbane        Queensland      Visiting  796.      796.
 9 2002 Q1 Gold Coast      Queensland      Holiday   711.      711.
10 2017 Q3 Melbourne       Victoria        Business  704.      704.
# ℹ 294 more rows

# state_tourism0 <- tourism2 |> 
#   unite(Region_Purpose, Region, Purpose, sep = " ") |> 
#   group_by(Region_Purpose, State) |> 
#   summarise(total = sum(Trips)) |> 
#   group_by(State) |> 
#   summarise(State_Total = sum(total))

# Create a new tsibble which combines the Purposes and Regions, and just has total trips by State.
state_tourism <- tourism2 |> 
  group_by(State) |> 
  summarise(State_Total = sum(Trips)) 
state_tourism 

# A tsibble: 640 x 3 [1Q]
# Key:       State [8]
   State Quarter State_Total
   <chr>   <qtr>       <dbl>
 1 ACT   1998 Q1        551.
 2 ACT   1998 Q2        416.
 3 ACT   1998 Q3        436.
 4 ACT   1998 Q4        450.
 5 ACT   1999 Q1        379.
 6 ACT   1999 Q2        558.
 7 ACT   1999 Q3        449.
 8 ACT   1999 Q4        595.
 9 ACT   2000 Q1        600.
10 ACT   2000 Q2        557.
# ℹ 630 more rows

# If not starting with a tsibble
state_tourism <- tourism2 |> 
  group_by(State) |> 
  summarise(State_Total = sum(Trips)) |> 
  mutate(Quarter = yearquarter(Quarter)) |> 
  as_tsibble(index = Quarter, key = State)
state_tourism 

# A tsibble: 640 x 3 [1Q]
# Key:       State [8]
   State Quarter State_Total
   <chr>   <qtr>       <dbl>
 1 ACT   1998 Q1        551.
 2 ACT   1998 Q2        416.
 3 ACT   1998 Q3        436.
 4 ACT   1998 Q4        450.
 5 ACT   1999 Q1        379.
 6 ACT   1999 Q2        558.
 7 ACT   1999 Q3        449.
 8 ACT   1999 Q4        595.
 9 ACT   2000 Q1        600.
10 ACT   2000 Q2        557.
# ℹ 630 more rows

The aus_arrivals data set comprises quarterly international arrivals to Australia from Japan, New Zealand, UK and the US.

# Use autoplot(), gg_season() and gg_subseries() to compare the differences between the arrivals from these four countries.

aus_arrivals

# A tsibble: 508 x 3 [1Q]
# Key:       Origin [4]
   Quarter Origin Arrivals
     <qtr> <chr>     <int>
 1 1981 Q1 Japan     14763
 2 1981 Q2 Japan      9321
 3 1981 Q3 Japan     10166
 4 1981 Q4 Japan     19509
 5 1982 Q1 Japan     17117
 6 1982 Q2 Japan     10617
 7 1982 Q3 Japan     11737
 8 1982 Q4 Japan     20961
 9 1983 Q1 Japan     20671
10 1983 Q2 Japan     12235
# ℹ 498 more rows
…
# Just annual cycles?

Using graphing functions

# Exploring US Employment Data
us_employment

# A tsibble: 143,412 x 4 [1M]
# Key:       Series_ID [148]
      Month Series_ID     Title         Employed
      <mth> <chr>         <chr>            <dbl>
 1 1939 Jan CEU0500000001 Total Private    25338
 2 1939 Feb CEU0500000001 Total Private    25447
 3 1939 Mar CEU0500000001 Total Private    25833
 4 1939 Apr CEU0500000001 Total Private    25801
 5 1939 May CEU0500000001 Total Private    26113
 6 1939 Jun CEU0500000001 Total Private    26485
 7 1939 Jul CEU0500000001 Total Private    26481
 8 1939 Aug CEU0500000001 Total Private    26848
 9 1939 Sep CEU0500000001 Total Private    27468
10 1939 Oct CEU0500000001 Total Private    27830
# ℹ 143,402 more rows
…
# Data is mostly trended

# Exploring Pelt Data --------

pelt

# A tsibble: 91 x 3 [1Y]
    Year  Hare  Lynx
   <dbl> <dbl> <dbl>
 1  1845 19580 30090
 2  1846 19600 45150
 3  1847 19610 49150
 4  1848 11990 39520
 5  1849 28040 21230
 6  1850 58000  8420
 7  1851 74600  5560
 8  1852 75090  5080
 9  1853 88480 10170
10  1854 61280 19600
# ℹ 81 more rows
…
# Follows similar pattern to hares, by the acf values are much higher

The following time plots and ACF plots correspond to four different time series. Your task is to match each time plot in the first row with one of the ACF plots in the second row.

3 - D, 1 - B, 2 - A, 4 - C

The aus_livestock data contains the monthly total number of pigs slaughtered in Victoria, Australia, from Jul 1972 to Dec 2018. Use filter() to extract pig slaughters in Victoria between 1990 and 1995. Use autoplot() and ACF() for this data. How do they differ from white noise? If a longer period of data is used, what difference does it make to the ACF?

aus_livestock

# A tsibble: 29,364 x 4 [1M]
# Key:       Animal, State [54]
      Month Animal                     State                        Count
      <mth> <fct>                      <fct>                        <dbl>
 1 1976 Jul Bulls, bullocks and steers Australian Capital Territory  2300
 2 1976 Aug Bulls, bullocks and steers Australian Capital Territory  2100
 3 1976 Sep Bulls, bullocks and steers Australian Capital Territory  2100
 4 1976 Oct Bulls, bullocks and steers Australian Capital Territory  1900
 5 1976 Nov Bulls, bullocks and steers Australian Capital Territory  2100
 6 1976 Dec Bulls, bullocks and steers Australian Capital Territory  1800
 7 1977 Jan Bulls, bullocks and steers Australian Capital Territory  1800
 8 1977 Feb Bulls, bullocks and steers Australian Capital Territory  1900
 9 1977 Mar Bulls, bullocks and steers Australian Capital Territory  2700
10 1977 Apr Bulls, bullocks and steers Australian Capital Territory  2300
# ℹ 29,354 more rows
…
# Do the changes in the stock prices look like white noise?
# Gerernally changes in stock prices look like white noise since they alll fall in under the confidence band

3. Chapter 3 -Time series decomposition (Notes)

4. Chapter 3 - Exercises

Consider the GDP information in global_economy. Plot the GDP per capita for each country over time. Which country has the highest GDP per capita? How has this changed over time?

global_economy

# A tsibble: 15,150 x 9 [1Y]
# Key:       Country [263]
   Country     Code   Year         GDP Growth   CPI Imports Exports Population
   <fct>       <fct> <dbl>       <dbl>  <dbl> <dbl>   <dbl>   <dbl>      <dbl>
 1 Afghanistan AFG    1960  537777811.     NA    NA    7.02    4.13    8996351
 2 Afghanistan AFG    1961  548888896.     NA    NA    8.10    4.45    9166764
 3 Afghanistan AFG    1962  546666678.     NA    NA    9.35    4.88    9345868
 4 Afghanistan AFG    1963  751111191.     NA    NA   16.9     9.17    9533954
 5 Afghanistan AFG    1964  800000044.     NA    NA   18.1     8.89    9731361
 6 Afghanistan AFG    1965 1006666638.     NA    NA   21.4    11.3     9938414
 7 Afghanistan AFG    1966 1399999967.     NA    NA   18.6     8.57   10152331
 8 Afghanistan AFG    1967 1673333418.     NA    NA   14.2     6.77   10372630
 9 Afghanistan AFG    1968 1373333367.     NA    NA   15.2     8.90   10604346
10 Afghanistan AFG    1969 1408888922.     NA    NA   15.0    10.1    10854428
# ℹ 15,140 more rows
…
