QMEL Forecasts – Forecasting: Chapter 5 Notes
…
5.3 Definitions:

I think of fitted values as forecasts for time stamps for which we already have observations. Is this an accurate definition❓

Residuals are the differences between observed and fitted values for the same time stamp.

5.3 Relevant example:

# Create a table of residuals (excluding innovation residuals since we don't get to those until the next section)
mb_snaive_resids = mb_simple_models[1] %>% 
  augment() %>% select(-.innov)
# Print out residuals (excluding the first few which are NAs)
mb_snaive_resids[13:379,]

# A tsibble: 367 x 5 [1M]
# Key:       .model [1]
   .model            month monthly_sst .fitted .resid
   <chr>             <mth>       <dbl>   <dbl>  <dbl>
 1 Seasonal_Naive 2001 Dec        11.9    13.5 -1.58 
 2 Seasonal_Naive 2002 Jan        12.7    14.3 -1.57 
 3 Seasonal_Naive 2002 Feb        12.8    13.3 -0.487
 4 Seasonal_Naive 2002 Mar        12.4    13.4 -1.01 
 5 Seasonal_Naive 2002 Apr        12.5    14.0 -1.58 
 6 Seasonal_Naive 2002 May        13.1    15.2 -2.12 
 7 Seasonal_Naive 2002 Jun        13.9    14.1 -0.179
 8 Seasonal_Naive 2002 Jul        15.2    16.7 -1.56 
 9 Seasonal_Naive 2002 Aug        15.4    16.8 -1.41 
10 Seasonal_Naive 2002 Sep        15.8    16.0 -0.179
# ℹ 357 more rows
…
